{
	"$schema": "https://raw.githubusercontent.com/martinring/tmlanguage/master/tmlanguage.json",
	"name": "ASharp",
	"patterns": [
		{
			"include": "#parentheses"
		},
		{
			"include": "#comments"
		},
		{
			"include": "#operators"
		},
		{
			"name": "support.function.asharp",
			"match": "(?i:(?:(\\b[a-zA-Z_][a-zA-Z0-9_]*?\\b)\\.)?(\\b[a-zA-Z_][a-zA-Z0-9_]*?\\b)(?=\\(\\)?))",
			"captures": {
				"1": {
					"name": "entity.name.type.class.asharp"
				},
				"2": {
					"name": "entity.name.function.asharp"
				}
			}
		},
		{
			"name": "support.variable.asharp",
			"match": "(?i:(\\b[a-zA-Z_][a-zA-Z0-9_]*?\\b)\\.(\\b[a-zA-Z_][a-zA-Z0-9_]*?\\b))",
			"captures": {
				"1": {
					"name": "entity.name.type.class.asharp"
				},
				"2": {
					"name": "variable.other.asharp"
				}
			}
		},
		{
			"name": "meta.function.asharp",
			"match": "^\\s*([a-zA-Z_]\\w*)\\b",
			"captures": {
				"1": {
					"name": "keyword.control.asharp"
				},
				"2": {
					"name": "variable.other.sub.asharp"
				}
			}
		},
		{
			"name": "keyword.control.asharp",
			"match": "\\b(?i:abort|abs|abstract|accept|access|access|aliased|all|and|array|at|begin|body|case|class|constant|declare|delay|delta|digits|do|else|elsif|end|entry|exception|exit|for|function|generic|goto|if|in|int|is|limited|loop|mod|new|not|null|of|or|others|out|package|pragma|private|procedure|protected|raise|range|record|renames|requeue|return|reverse|select|separate|static|string|subtype|tagged|task|terminate|then|This|type|until|use|void|when|while|with|xor)\\b"
		},
		{
			"name": "string.quoted.double.asharp",
			"match": "\".*?\""
		},
		{
			"name": "constant.numeric",
			"match": "\\b(0|[1-9]\\d*)(\\.[0-9]+)?\\b"
		}
	],
	"repository": {
		"parentheses": {
			"name": "meta.parentheses.asharp",
			"begin": "\\(",
			"beginCaptures": {
				"0": {
					"name": "punctuation.parentheses.begin.asharp"
				}
			},
			"end": "\\)",
			"endCaptures": {
				"0": {
					"name": "punctuation.parentheses.end.asharp"
				}
			},
			"patterns": [
				{
					"include": "source.asharp"
				}
			]
		},
		"comments": {
			"patterns": [
				{
					"name": "comment.line.double-dash.asharp",
					"match": "--.*$"
				}
			]
		},
		"operators": {
			"patterns": [
				{
					"name": "keyword.operator.arithmetic.asharp",
					"match": "(\\+|-|\\*|/)"
				},
				{
					"name": "keyword.operator.logical.asharp",
					"match": "(=|/=|<|>|<=|>=)"
				},
				{
					"name": "keyword.operator.assignment.asharp",
					"match": ":="
				}
			]
		}
	},
	"scopeName": "source.asharp"
}